{"db_type": 3, "db_driver": "pymysql", "db_username": "tnxt", "db_password": "tnxt", "db_url": "192.168.80.1", "db_port": "3306", "db_name": "emsv2", "SECRET_KEY": "dUYPxH+tIMphvSXHJQQ2MN4p3Q8D8M/D", "NOTIFICATION_USER_PASSWORD": "+Z5/4xT3rZZ3wNs+IvkaQiRIR3jxyDK3"}


